…
为了演示基本的调试方法，我将向您展示我在编写 Section \@ref(hierarchical-select) 时遇到的一个小问题。
我将首先向您展示基本情景，然后您会看到一个我没有使用交互式调试工具解决的问题，一个需要交互式调试的问题，并发现最后的惊喜。

最初的目标非常简单：我有一个销售数据集，我想按地区过滤它。
数据如下：


```r
sales <- readr::read_csv("sales-dashboard/sales_data_sample.csv")
sales <- sales[c(
  "TERRITORY", "ORDERDATE", "ORDERNUMBER", "PRODUCTCODE",
  "QUANTITYORDERED", "PRICEEACH"
)]
sales
#> # A tibble: 2,823 × 6
#>   TERRITORY ORDERDATE      ORDERNUMBER PRODUCTCODE QUANTITYORDERED PRICEEACH
#>   <chr>     <chr>                <dbl> <chr>                 <dbl>     <dbl>
#> 1 <NA>      2/24/2003 0:00       10107 S10_1678                 30      95.7
#> 2 EMEA      5/7/2003 0:00        10121 S10_1678                 34      81.4
#> 3 EMEA      7/1/2003 0:00        10134 S10_1678                 41      94.7
#> 4 <NA>      8/25/2003 0:00       10145 S10_1678                 45      83.3
#> # ℹ 2,819 more rows
```
…
我想，这是一个八行 app，可能会出什么问题吗？好吧，当我打开 app 时，我看到很多缺失值，无论我选择哪个区域。
最有可能成为问题根源的代码是选择要显示的数据的响应式：`sales[sales$TERRITORY == input$territory, ]`。
因此，我停止了该 app，并快速验证了子集化是否按照我想象的方式工作：


```r
sales[sales$TERRITORY == "EMEA", ]
#> # A tibble: 2,481 × 6
#>   TERRITORY ORDERDATE     ORDERNUMBER PRODUCTCODE QUANTITYORDERED PRICEEACH
#>   <chr>     <chr>               <dbl> <chr>                 <dbl>     <dbl>
#> 1 <NA>      <NA>                   NA <NA>                     NA      NA  
#> 2 EMEA      5/7/2003 0:00       10121 S10_1678                 34      81.4
#> 3 EMEA      7/1/2003 0:00       10134 S10_1678                 41      94.7
#> 4 <NA>      <NA>                   NA <NA>                     NA      NA  
#> # ℹ 2,477 more rows
```
…
当我使用 `[` 对 `sales` data frame 进行子集化时，这些缺失值将成为缺失行；输入中的任何缺失值都将保留在输出中。
有很多方法可以解决这个问题，但我决定使用 `subset()`[^action-workflow-3]，因为会自动删除缺失值并减少我需要输入 `sales` 的次数。然后我仔细检查了这是否确实有效：

[^action-workflow-3]: 我正在使用 `subset()`，这样我的 app 就不需要任何其他包了。
    在更大的 app 中，我可能更喜欢 `dplyr::filter()`，因为我对它的行为更熟悉。


```r
subset(sales, TERRITORY == "EMEA")
#> # A tibble: 1,407 × 6
#>   TERRITORY ORDERDATE       ORDERNUMBER PRODUCTCODE QUANTITYORDERED PRICEEACH
#>   <chr>     <chr>                 <dbl> <chr>                 <dbl>     <dbl>
#> 1 EMEA      5/7/2003 0:00         10121 S10_1678                 34      81.4
#> 2 EMEA      7/1/2003 0:00         10134 S10_1678                 41      94.7
#> 3 EMEA      11/11/2003 0:00       10180 S10_1678                 29      86.1
#> 4 EMEA      11/18/2003 0:00       10188 S10_1678                 48     100  
#> # ℹ 1,403 more rows
```
…
```r
head(sales$TERRITORY == NA, 25)
#>  [1] NA NA NA NA NA NA NA NA NA NA NA NA NA NA NA NA NA NA NA NA NA NA NA NA NA
```

您可以使用另一个技巧来解决此问题：从 `==` 切换到 `%in%`：


```r
head(sales$TERRITORY %in% NA, 25)
#>  [1]  TRUE FALSE FALSE  TRUE  TRUE  TRUE FALSE FALSE  TRUE FALSE FALSE  TRUE
#> [13]  TRUE  TRUE FALSE  TRUE FALSE FALSE  TRUE  TRUE FALSE FALSE FALSE  TRUE
#> [25] FALSE
subset(sales, TERRITORY %in% NA)
#> # A tibble: 1,074 × 6
#>   TERRITORY ORDERDATE       ORDERNUMBER PRODUCTCODE QUANTITYORDERED PRICEEACH
#>   <chr>     <chr>                 <dbl> <chr>                 <dbl>     <dbl>
#> 1 <NA>      2/24/2003 0:00        10107 S10_1678                 30      95.7
#> 2 <NA>      8/25/2003 0:00        10145 S10_1678                 45      83.3
#> 3 <NA>      10/10/2003 0:00       10159 S10_1678                 49     100  
#> 4 <NA>      10/28/2003 0:00       10168 S10_1678                 36      96.7
#> # ℹ 1,070 more rows
```
…
