Chapter 6 Dynamic UI | Mastering Shiny
…
以这种方式使用更新函数的方法有很多种；当您开发复杂的应用程序时，请寻找向用户提供更多信息的方法。
一个特别重要的应用是通过逐步过滤，可以更轻松地从一长串可能的选项中进行选择。
这通常是“分层选择框”的问题。

6.1.2 Hierarchical select boxes

更新函数的一个更复杂但特别有用的应用是允许跨多个类别进行交互式钻取。
我将使用来自 https://www.kaggle.com/kyanyoga/sample-sales-data 的销售仪表盘的一些虚构数据来说明它们的用法。

sales <- vroom::vroom("sales-dashboard/sales_data_sample.csv", col_types = list(), na = "")
sales %>% 
  select(TERRITORY, CUSTOMERNAME, ORDERNUMBER, everything()) %>%
  arrange(ORDERNUMBER)
#> # A tibble: 2,823 × 25
#>    TERRITORY CUSTOMERNAME   ORDERNUMBER QUANTITYORDERED PRICEEACH ORDERLINENUMBER
#>    <chr>     <chr>                <dbl>           <dbl>     <dbl>           <dbl>
#>  1 NA        Online Diecas…       10100              30     100                 3
#>  2 NA        Online Diecas…       10100              50      67.8               2
#>  3 NA        Online Diecas…       10100              22      86.5               4
#>  4 NA        Online Diecas…       10100              49      34.5               1
#>  5 EMEA      Blauer See Au…       10101              25     100                 4
#>  6 EMEA      Blauer See Au…       10101              26     100                 1
#>  7 EMEA      Blauer See Au…       10101              45      31.2               3
#>  8 EMEA      Blauer See Au…       10101              46      53.8               2
#>  9 NA        Vitachrome In…       10102              39     100                 2
#> 10 NA        Vitachrome In…       10102              41      50.1               1
#> # ℹ 2,813 more rows
#> # ℹ 19 more variables: SALES <dbl>, ORDERDATE <chr>, STATUS <chr>, QTR_ID <dbl>,
#> #   MONTH_ID <dbl>, YEAR_ID <dbl>, PRODUCTLINE <chr>, MSRP <dbl>,
#> #   PRODUCTCODE <chr>, PHONE <chr>, ADDRESSLINE1 <chr>, ADDRESSLINE2 <chr>,
#> #   CITY <chr>, STATE <chr>, POSTALCODE <chr>, COUNTRY <chr>,
#> #   CONTACTLASTNAME <chr>, CONTACTFIRSTNAME <chr>, DEALSIZE <chr>
…
