Chapter 5 Workflow | Mastering Shiny
…
Once you eliminate the impossible, whatever remains, no matter how improbable, must be the truth — Sherlock Holmes

To demonstrate the basic debugging approach, I’ll show you a little problem I encountered when writing Section ??.
I’ll first show you the basic context, then you’ll see a problem I resolved without interactive debugging tools, a problem that required interactive debugging, and discover a final suprise.

The initial goal is pretty simple: I have a dataset of sales, and I want to filter it by territory.
Here’s what the data looks like:

sales <- readr::read_csv("sales-dashboard/sales_data_sample.csv")
sales <- sales[c(
  "TERRITORY", "ORDERDATE", "ORDERNUMBER", "PRODUCTCODE",
  "QUANTITYORDERED", "PRICEEACH"
)]
sales
#> # A tibble: 2,823 × 6
#>   TERRITORY ORDERDATE      ORDERNUMBER PRODUCTCODE QUANTITYORDERED PRICEEACH
#>   <chr>     <chr>                <dbl> <chr>                 <dbl>     <dbl>
#> 1 <NA>      2/24/2003 0:00       10107 S10_1678                 30      95.7
#> 2 EMEA      5/7/2003 0:00        10121 S10_1678                 34      81.4
#> 3 EMEA      7/1/2003 0:00        10134 S10_1678                 41      94.7
#> 4 <NA>      8/25/2003 0:00       10145 S10_1678                 45      83.3
#> # ℹ 2,819 more rows
…
ui <- fluidPage(
  selectInput("territory", "territory", choices = unique(sales$TERRITORY)),
  tableOutput("selected")
)
server <- function(input, output, session) {
  selected <- reactive(sales[sales$TERRITORY == input$territory, ])
  output$selected <- renderTable(head(selected(), 10))
}

I thought, it’s an eight line app, what could possibly go wrong? Well, when I opened the app up I saw a lot of missing values, no matter what territory I selected.
The code most likely to be the source of the problem was the reactive that selected the data to show: sales[sales$TERRITORY == input$territory, ].
So I stopped the app, and quickly verified that subsetting worked the way I thought it did:

sales[sales$TERRITORY == "EMEA", ]
#> # A tibble: 2,481 × 6
#>   TERRITORY ORDERDATE     ORDERNUMBER PRODUCTCODE QUANTITYORDERED PRICEEACH
#>   <chr>     <chr>               <dbl> <chr>                 <dbl>     <dbl>
#> 1 <NA>      <NA>                   NA <NA>                     NA      NA  
#> 2 EMEA      5/7/2003 0:00       10121 S10_1678                 34      81.4
#> 3 EMEA      7/1/2003 0:00       10134 S10_1678                 41      94.7
#> 4 <NA>      <NA>                   NA <NA>                     NA      NA  
#> # ℹ 2,477 more rows

Ooops!
I’d forgotten that TERRITORY contained a bunch of missing values which means that sales$TERRITORY == "EMEA" would contain a bunch of missing values:

head(sales$TERRITORY == "EMEA", 25)
#>  [1]    NA  TRUE  TRUE    NA    NA    NA  TRUE  TRUE    NA  TRUE FALSE    NA
#> [13]    NA    NA  TRUE    NA  TRUE  TRUE    NA    NA  TRUE FALSE  TRUE    NA
#> [25]  TRUE

These missing values become missing rows when I use them to subset the sales data frame with [; any missing values in input will be preserved in the output.
There are lots of way to resolve this problem but I decided to use subset()17 because automatically removes missing values and reduces the number of times I need to type sales. I then double checked this actually worked:

subset(sales, TERRITORY == "EMEA")
#> # A tibble: 1,407 × 6
#>   TERRITORY ORDERDATE       ORDERNUMBER PRODUCTCODE QUANTITYORDERED PRICEEACH
#>   <chr>     <chr>                 <dbl> <chr>                 <dbl>     <dbl>
#> 1 EMEA      5/7/2003 0:00         10121 S10_1678                 34      81.4
#> 2 EMEA      7/1/2003 0:00         10134 S10_1678                 41      94.7
#> 3 EMEA      11/11/2003 0:00       10180 S10_1678                 29      86.1
#> 4 EMEA      11/18/2003 0:00       10188 S10_1678                 48     100  
#> # ℹ 1,403 more rows
…
And then I remembered that of course this won’t work because missing values are infectious:

head(sales$TERRITORY == NA, 25)
#>  [1] NA NA NA NA NA NA NA NA NA NA NA NA NA NA NA NA NA NA NA NA NA NA NA NA NA

There’s another trick you can use to resolve this problem: switch from == to %in%:

head(sales$TERRITORY %in% NA, 25)
#>  [1]  TRUE FALSE FALSE  TRUE  TRUE  TRUE FALSE FALSE  TRUE FALSE FALSE  TRUE
#> [13]  TRUE  TRUE FALSE  TRUE FALSE FALSE  TRUE  TRUE FALSE FALSE FALSE  TRUE
#> [25] FALSE
subset(sales, TERRITORY %in% NA)
#> # A tibble: 1,074 × 6
#>   TERRITORY ORDERDATE       ORDERNUMBER PRODUCTCODE QUANTITYORDERED PRICEEACH
#>   <chr>     <chr>                 <dbl> <chr>                 <dbl>     <dbl>
#> 1 <NA>      2/24/2003 0:00        10107 S10_1678                 30      95.7
#> 2 <NA>      8/25/2003 0:00        10145 S10_1678                 45      83.3
#> 3 <NA>      10/10/2003 0:00       10159 S10_1678                 49     100  
#> 4 <NA>      10/28/2003 0:00       10168 S10_1678                 36      96.7
#> # ℹ 1,070 more rows
…
