…
我们将使用的主要数据集是 `injuries`，其中包含大约 250,000 个观察值：


```r
injuries <- vroom::vroom("neiss/injuries.tsv.gz")
injuries
#> # A tibble: 255,064 × 10
#>   trmt_date    age sex   race  body_part   diag         location prod_code weight
#>   <date>     <dbl> <chr> <chr> <chr>       <chr>        <chr>        <dbl>  <dbl>
#> 1 2017-01-01    71 male  white Upper Trunk Contusion O… Other P…      1807   77.7
#> 2 2017-01-01    16 male  white Lower Arm   Burns, Ther… Home           676   77.7
#> 3 2017-01-01    58 male  white Upper Trunk Contusion O… Home           649   77.7
#> 4 2017-01-01    21 male  white Lower Trunk Strain, Spr… Home          4076   77.7
#> 5 2017-01-01    54 male  white Head        Inter Organ… Other P…      1807   77.7
#> 6 2017-01-01    21 male  white Hand        Fracture     Home          1884   77.7
#> # ℹ 255,058 more rows
#> # ℹ 1 more variable: narrative <chr>
```
…
-   `diag` 给出损伤的基本诊断（如骨折或撕裂）。

-   `prod_code` 是与伤害相关的主要产品。

-   `weight` 是统计权重，给出了如果将此数据集扩展到美国全体人口时将遭受这种伤害的估计人数。

-   `narrative` 是关于事故如何发生的简短故事。

我们将其与其他两个 data frames 配对以获取更多上下文：`products` 让我们从产品代码中查找产品名称，`population` 告诉我们 2017 年每种年龄和性别组合的美国总人口。


```r
products <- vroom::vroom("neiss/products.tsv")
products
#> # A tibble: 38 × 2
#>   prod_code title                            
#>       <dbl> <chr>                            
#> 1       464 knives, not elsewhere classified 
#> 2       474 tableware and accessories        
#> 3       604 desks, chests, bureaus or buffets
#> 4       611 bathtubs or showers              
#> 5       649 toilets                          
#> 6       676 rugs or carpets, not specified   
#> # ℹ 32 more rows

population <- vroom::vroom("neiss/population.tsv")
population
#> # A tibble: 170 × 3
#>     age sex    population
#>   <dbl> <chr>       <dbl>
#> 1     0 female    1924145
#> 2     0 male      2015150
#> 3     1 female    1943534
#> 4     1 male      2031718
#> 5     2 female    1965150
#> 6     2 male      2056625
#> # ℹ 164 more rows
```
…
```r
selected %>% count(location, wt = weight, sort = TRUE)
#> # A tibble: 6 × 2
#>   location                         n
#>   <chr>                        <dbl>
#> 1 Home                       99603. 
#> 2 Other Public Property      18663. 
#> 3 Unknown                    16267. 
#> 4 School                       659. 
#> 5 Street Or Highway             16.2
#> 6 Sports Or Recreation Place    14.8

selected %>% count(body_part, wt = weight, sort = TRUE)
#> # A tibble: 24 × 2
#>   body_part        n
#>   <chr>        <dbl>
#> 1 Head        31370.
#> 2 Lower Trunk 26855.
#> 3 Face        13016.
#> 4 Upper Trunk 12508.
#> 5 Knee         6968.
#> 6 N.S./Unk     6741.
#> # ℹ 18 more rows

selected %>% count(diag, wt = weight, sort = TRUE)
#> # A tibble: 20 × 2
#>   diag                       n
#>   <chr>                  <dbl>
#> 1 Other Or Not Stated   32897.
#> 2 Contusion Or Abrasion 22493.
#> 3 Inter Organ Injury    21525.
#> 4 Fracture              21497.
#> 5 Laceration            18734.
#> 6 Strain, Sprain         7609.
#> # ℹ 14 more rows
```

正如您所料，涉及 toilets 的伤害最常发生在 home。
最常见的 body parts 可能表明这些是跌倒（因为 head 和 face 通常不涉及日常厕所使用），并且诊断似乎相当多样化。

我们这里有足够的数据，表格没有那么有用，所以我做了一个图，Figure \@ref(fig:toilets-raw)，使模式更加明显。


```r
summary <- selected %>% 
  count(age, sex, wt = weight)
summary
#> # A tibble: 208 × 3
#>     age sex         n
#>   <dbl> <chr>   <dbl>
#> 1     0 female   4.76
#> 2     0 male    14.3 
#> 3     1 female 253.  
#> 4     1 male   231.  
#> 5     2 female 438.  
#> 6     2 male   632.  
#> # ℹ 202 more rows
…
解释这一模式的一个问题是，我们知道老年人比年轻人少，因此可能受伤的人口也较少。
我们可以通过比较受伤人数与总人口并计算受伤率来控制这一点。
这里我使用的是每 10,000 人的比率。


```r
summary <- selected %>% 
  count(age, sex, wt = weight) %>% 
  left_join(population, by = c("age", "sex")) %>% 
  mutate(rate = n / population * 1e4)

summary
#> # A tibble: 208 × 5
#>     age sex         n population   rate
#>   <dbl> <chr>   <dbl>      <dbl>  <dbl>
#> 1     0 female   4.76    1924145 0.0247
#> 2     0 male    14.3     2015150 0.0708
#> 3     1 female 253.      1943534 1.30  
#> 4     1 male   231.      2031718 1.14  
#> 5     2 female 438.      1965150 2.23  
#> 6     2 male   632.      2056625 3.07  
#> # ℹ 202 more rows
```
…
