Chapter 4 Case study: ER injuries | Mastering Shiny
…
dir.create("neiss")
download <- function(name) {
  url <- "https://github.com/hadley/mastering-shiny/blob/main/neiss/"
  download.file(paste0(url, name), paste0("neiss/", name), quiet = TRUE)
}
download("injuries.tsv.gz")
download("population.tsv")
download("products.tsv")

The main dataset we’ll use is injuries, which contains around 250,000 observations:

injuries <- vroom::vroom("neiss/injuries.tsv.gz")
injuries
#> # A tibble: 255,064 × 10
#>   trmt_date    age sex   race  body_part   diag         location prod_code weight
#>   <date>     <dbl> <chr> <chr> <chr>       <chr>        <chr>        <dbl>  <dbl>
#> 1 2017-01-01    71 male  white Upper Trunk Contusion O… Other P…      1807   77.7
#> 2 2017-01-01    16 male  white Lower Arm   Burns, Ther… Home           676   77.7
#> 3 2017-01-01    58 male  white Upper Trunk Contusion O… Home           649   77.7
#> 4 2017-01-01    21 male  white Lower Trunk Strain, Spr… Home          4076   77.7
#> 5 2017-01-01    54 male  white Head        Inter Organ… Other P…      1807   77.7
#> 6 2017-01-01    21 male  white Hand        Fracture     Home          1884   77.7
#> # ℹ 255,058 more rows
#> # ℹ 1 more variable: narrative <chr>
…
body_part is the location of the injury on the body (like ankle or ear); location is the place where the accident occurred (like home or school).

diag gives the basic diagnosis of the injury (like fracture or laceration).

prod_code is the primary product associated with the injury.

weight is statistical weight giving the estimated number of people who would suffer this injury if this dataset was scaled to the entire population of the US.

narrative is a brief story about how the accident occurred.

We’ll pair it with two other data frames for additional context: products lets us look up the product name from the product code, and population tells us the total US population in 2017 for each combination of age and sex.

products <- vroom::vroom("neiss/products.tsv")
products
#> # A tibble: 38 × 2
#>   prod_code title                            
#>       <dbl> <chr>                            
#> 1       464 knives, not elsewhere classified 
#> 2       474 tableware and accessories        
#> 3       604 desks, chests, bureaus or buffets
#> 4       611 bathtubs or showers              
#> 5       649 toilets                          
#> 6       676 rugs or carpets, not specified   
#> # ℹ 32 more rows

population <- vroom::vroom("neiss/population.tsv")
population
#> # A tibble: 170 × 3
#>     age sex    population
#>   <dbl> <chr>       <dbl>
#> 1     0 female    1924145
#> 2     0 male      2015150
#> 3     1 female    1943534
#> 4     1 male      2031718
#> 5     2 female    1965150
#> 6     2 male      2056625
#> # ℹ 164 more rows
…
selected %>% count(location, wt = weight, sort = TRUE)
#> # A tibble: 6 × 2
#>   location                         n
#>   <chr>                        <dbl>
#> 1 Home                       99603. 
#> 2 Other Public Property      18663. 
#> 3 Unknown                    16267. 
#> 4 School                       659. 
#> 5 Street Or Highway             16.2
#> 6 Sports Or Recreation Place    14.8

selected %>% count(body_part, wt = weight, sort = TRUE)
#> # A tibble: 24 × 2
#>   body_part        n
#>   <chr>        <dbl>
#> 1 Head        31370.
#> 2 Lower Trunk 26855.
#> 3 Face        13016.
#> 4 Upper Trunk 12508.
#> 5 Knee         6968.
#> 6 N.S./Unk     6741.
#> # ℹ 18 more rows

selected %>% count(diag, wt = weight, sort = TRUE)
#> # A tibble: 20 × 2
#>   diag                       n
#>   <chr>                  <dbl>
#> 1 Other Or Not Stated   32897.
#> 2 Contusion Or Abrasion 22493.
#> 3 Inter Organ Injury    21525.
#> 4 Fracture              21497.
#> 5 Laceration            18734.
#> 6 Strain, Sprain         7609.
#> # ℹ 14 more rows

As you might expect, injuries involving toilets most often occur at home.
The most common body parts involved possibly suggest that these are falls (since the head and face are not usually involved in routine toilet usage), and the diagnoses seem rather varied.

We can also explore the pattern across age and sex.
We have enough data here that a table is not that useful, and so I make a plot, Figure 4.1, that makes the patterns more obvious.

summary <- selected %>% 
  count(age, sex, wt = weight)
summary
#> # A tibble: 208 × 3
#>     age sex         n
#>   <dbl> <chr>   <dbl>
#> 1     0 female   4.76
#> 2     0 male    14.3 
#> 3     1 female 253.  
#> 4     1 male   231.  
#> 5     2 female 438.  
#> 6     2 male   632.  
#> # ℹ 202 more rows
…
We see a spike for young boys peaking at age 3, and then an increase (particularly for women) starting around middle age, and a gradual decline after age 80.
I suspect the peak is because boys usually use the toilet standing up, and the increase for women is due to osteoporosis (i.e. I suspect women and men have injuries at the same rate, but more women end up in the ER because they are at higher risk of fractures).

One problem with interpreting this pattern is that we know that there are fewer older people than younger people, so the population available to be injured is smaller.
We can control for this by comparing the number of people injured with the total population and calculating an injury rate.
Here I use a rate per 10,000.

summary <- selected %>% 
  count(age, sex, wt = weight) %>% 
  left_join(population, by = c("age", "sex")) %>% 
  mutate(rate = n / population * 1e4)

summary
#> # A tibble: 208 × 5
#>     age sex         n population   rate
#>   <dbl> <chr>   <dbl>      <dbl>  <dbl>
#> 1     0 female   4.76    1924145 0.0247
#> 2     0 male    14.3     2015150 0.0708
#> 3     1 female 253.      1943534 1.30  
#> 4     1 male   231.      2031718 1.14  
#> 5     2 female 438.      1965150 2.23  
#> 6     2 male   632.      2056625 3.07  
#> # ℹ 202 more rows
…
